{
    "en": {
        "exchange": "Exchange",
        "contract": "Contract",
        "admin": "Admin",
        "cbpro": "MMT",
        "welcome": "Welcome to MMT <br> You are the farmer! You invest in Crops <br>  The longer you invest,  more the Profit You Get! <br> Why Sit Back When You can Use The Invest To Buy From Online Store ? <br> ",
        "getcbproToken": "Get MMT Tokens",
        "howitworks": "How it Works",
        "howitworkpara": "For every buying of coins on the platform, equal number of coins is released to the community pool. Every user in the pool gets a percentage of the Ethereum the user purchased depending on the number of coins they hold. <br>The more coin you hold, the more profit you get.<br>You dont get profit for the purchase you make. But when the next user purchase, you get a divident(profit) of ethereum based on the coins you hold. <br>The early you are in , the more coins you hold, the more rich you are.",
        "communityvolume": "Magic Mall",
        "communityvolumepara": "We provide an online platform where you can use the Magic Mall Tokens (MMT) to buy products. So you just dont need to be bored after investing in the platform. Visit our online store to buy products with MMT",
        "vistmall": "Visit Mall",
        "smartContract": "Smart Contract",
        "smartContractText": "MMT is based on a smart contract run on the ethereum blockchain. The coins that you get are equivalent of Taiwan Coins you get with 1 Ether. However, we change the coins available for 1 Ether as market changes. If you are lucky, you may get more MMT on a low market day. The Entire logic runs on smart contract. It is not run by humans, immutable, self sustaining to live as long as the ethereum blockchain is in existence. We also have a back up exchange that also runs should the site go down. 24/7 MMT lives on and on and on and on and on and on and on...",
        "community": "Community Concept",
        "communitypara": "We belive in Community Concept. When you get rich, to keep the chain move forward, the people in the community should also get rich.That is why, when a user buy MMT, the amount is shared with everyone in the community depending on how many coins they hold and how old are they with the coins.The early your investment is, the more divident(profit) you get based on the coins you hold ",
        "decentralisedexchange": "Visit our Decentralized Exchange",
        "decentralisedexchangepara": "Earn Dividends on Every Buy",
        "powerofcommunity": "Magic Mall Token is about the Power of Community",
        "powerofcommunitypara": "With the backing of the community and everyone working together you know we can and will be moving volume together. Play and you’ll be making divs 24/7",
        "divfromcbpro": "DIVS from MMT",
        "cbrolive": "<strong>MMT Exchange is live</strong> !",
        "getMMT": "GET MMT",
        "joincommunity": "Join our Community",
        "joincommunitypara": "Connect with us on discord to get all the latest news and to connect with the community<br>or check out our telegram for some straight up crypto talk.<br>",
        "pumpanddump": "Game Rules",
        "pumpanddumppara": "Visit Our Decentralised Exchange and Buy MMT. You receive MMT based on the Ether you are Investing. More Ether you invest, more tokens you get, more share you get in the pool.",
        "thinkdifferently": "Think Differently",
        "strategy": "One Account - One Invest",
        "strategypara": "This is the tricky part. This is similar to how you do farming. Once you invest and hold share of tokens, you cant invest again without taking the profit. This is like harvesting the crop. You need to take the crop out of the farm to invest again. However, you are free to invest from different accounts. The earlier you invest, the more profit you get. ",
        "whichplayer": "Which type of Player are you?",
        "whichplayerpara": "By knowing how you are going to play you can strategize for yourself and at the same time grow with the community. The more you know the more divs you can earn steadily. And the way you play does truly benefit everyone.",
        "passive": "Passive",
        "passivepara": "If you are a passive player, you can invest and come back later. You will see the profit growing up. You dont need to do anything the profit would go up as more and more users buy. The moment you take your profit out, you exit the game. Then you can again invest. We are sure you will invest.",
        "active": "Active",
        "activepara": "Active players are the extroverts. Your here to make money. And the more you can make in less time the better. Invest with multiple accounts, withdraw the profit frequently and invest again. To be clever, there is a triky transfer option. You can send the tokens from low profit account to high profit account to take more profit. This would only help if you have multiple investments",
        "activepassive": "Mall Users",
        "activepassivepara": "When you want to buy items from the Magic Mall, you need Magic Mall Tokens. Buy MMT from our Decentralised Exchange and use in the Magic Mall to buy things. Good Offers exist in Magic Mall. We are sure you will find it worth",
        "closing": "In closing... About MMT in a nutshell",
        "closingpara": "Managed by a smart contract entirely",
        "automaticprice": "Taiwan Coin Pricing",
        "volumebased": "Volume based earning",
        "activeincome": "Active-income Staking",
        "notconcept": "Not a \"Concept\" token",
        "general": "General",
        "home": "Home",
        "social": "Social",
        "discord": "Discord",
        "telegram": "Telegram",
        "twitter": "Twitter",
        "reddit": "Reddit",
        "steemit": "Steemit",
        "disclaimer": "This is a game. Site was made for entertainment purposes. Have fun make divs. Don't bet the house and dont go broke playing our Game of proofs. Be responsible. You are accountable for the ether you put in. Play with ether you are willing to lose. This is not an investment. Its crypto. Its a roller coaster of craziness. Hang on and enjoy. And if you are making mad divs... You have won the game.",
        "decentralised": "MMT Token Marketplace - Buy MMT Tokens",
        "masternodelink": "Invest In MMT Tokens and See Your Profit Growing",
        "masternodepara": "You can also use MMT Tokens to Buy Items from MMT Store",
        "masternodeSecondpara": "Please click here to visit the store",
        "oops": "Oops",
        "close": "Close",
        "ethInContract": "<strong>Ethereum in Contract</strong>",
        "cbproInCirculation": "<strong>MMT Tokens in circulation</strong>",
        "buyPr": "<strong>Buy Price</strong>",
        "sellPr": "<strong>Sell Price</strong>",
        "buyCbproTokensHere": "<strong>BUY MMT Tokens Here</strong>",
        "typeNumber": "Type number above for instant price estimation.",
        "buyNow": "BUY NOW!",
        "payMoreGas": "Pay More Gas = Faster Transaction",
        "withdrReinvestMain": "<strong>Withdraw - Profit from Present Investment</strong>",
        "withdrReinvestPara": "This will withdraw all your Profit / Dividends.",
        "withdrawAll": "If you want to Invest Again with the Same Account. You need to withdraw your Profit!",
        "withdraw": "Withdraw",
        "profitEther": "ETHER (est.)",
        "profitUsd": "USD (est.)",
        "pocOwned": "<strong>MMT Tokens Owned</strong>",
        "token": "Tokens",
        "ether": "ETHER (est.)",
        "usd": "USD (est.)",
        "dividendsEarned": "<strong>Dividends Already Consumed - From Previous Investments</strong>",
        "etherAccurate": "ETHER",
        "usdAccurate": "USD",
        "nonRefferalDividends": "<strong>Non-Referral Dividends</strong>",
        "sellTokens": "<strong>Before You Think About Transferring, Know This !</strong>",
        "sellTokensSub": "Transferring your complete coins to any one is similar to performig withdrawal. Its your choice either to transfer the complete coin or send only some coins. If you are sending only some part of the coins you hold, you will be eligible for profit only for the coins you hold !",
        "sellButton": "SELL",
        "sellQuestion": "Think whether you need to lose your profit by transferring",
        "transferTokens": "<strong>Transfer MMT TOKENS</strong>",
        "transferTokensSub": "Input the amount of MMT and address where you want to transfer tokens.",
        "transferTokensButton": "Transfer",
        "welcomeAdmin": "Welcome Admin",
        "setStaking": "<strong>Set Minimum Purchase Token Requirement</strong>",
        "setStakingHeading": "Type number above to see present Minimum Purchase Token ",
        "setStakingPara": "This sets the minimum number of tokens user should buy from the platform",
        "onlyAdminStaking": "Only Admin can change the Minimum Token Requirement",
        "stakingButton": "Change Minimum Token Requirement!",
        "setTokensForTWD": "<strong>Set Tokens for 1 Ether</strong>",
        "setTokenforOneTWDHeading": "Type number above to see present tokens for 1 Ether",
        "setTokenforOneTWDPara": "This sets the number of tokens that will be available for 1 Eth (should be the present NT$ available for 1 eth)",
        "onlyAdminSettingCoinsTWD": "Only Admin can change this",
        "settingCoinsFor1EthButton": "Change Tokens For 1 Eth!",
        "exchangeRate": "Present NT$ available for 1 Eth as per exchange rate is:",
        "withdrAdminHeading": "Withdraw - Profit from Present Investment",
        "withdrAdminPara": "This will withdraw all your Profit / Dividends from the Admin Pool",
        "withdrawAdminSecondPara": "Once you withdraw, you will be able to take again profit when new users purchases the token",
        "etherProfitAccurate": "ETHER",
        "usdProfitAccurate": "USD",
        "twdProfitaccurate": "NT$",
        "tokenOwned": "Tokens Owned",
        "tokenBurned": "Tokens Burned",
        "mallOwnerTokenPara": "See Below The Tokens Held by Mall Owner",
        "mallOwnerTokenParaSecond": "Total",
        "tokensTotalOwned": "Tokens Owned",
        "tokenTotalOwnedPriceUSD": "Price in USD",
        "tokenTotalOwnedPriceTWD": "Price in NT$",
        "mallOwnerTokenParaThird": "Present - To Encash",
        "profitTwd": "NT$",
        "twd": "NT$ (est.)",
        "twdAccurate": "NT$"
    },

    "ch": {
        "exchange": "交易",
        "contract": "合約",
        "admin": "管理員",
        "cbpro": "MMT",
        "welcome": "歡迎你來到MMT <br> 您是農夫！您投資在您的農作物， <br>  投資時間越長，獲利就越多！ <br> 當您可以從在線購物平台哪裡購物，為何要錯過機會？ <br> ",
        "getcbproToken": "獲得魔法權益 ",
        "howitworks": "如何運作",
        "howitworkpara": "在平台上每次購買權益，都會向社區池釋放相等數量的權益。池中的每個用戶都將獲得其購買的以太坊的百分比作為分紅，具體取決於他們持有的權益代幣數量。 <br>您持有的權益越多，獲得的利潤就越多。<br>您不會從您第一次的購買權益中獲得相關利潤。但是當下一個用戶購買時，您會根據持有的權益獲得以太坊的分紅（利潤）. <br>您越早進入，您持有的權益越多，您就獲利越大.",
        "communityvolume": "魔法購物平台",
        "communityvolumepara": "我們提供了一個在線購物平台，您可以在其中使用權益代幣（MMT）購買產品。因此，您無需在投資該平台後等待分紅。你也可以訪問我們的在線商店以購買魔權益的產品",
        "vistmall": "訪問魔法購物平台",
        "smartContract": "智能合約",
        "smartContractText": "MMT基於在以太坊區塊鏈上運行的智能合約。您獲得的權益等同於您以1ETH 獲得的台幣等值的代幣。但是，隨著市場變化，我們會更改可用於1個以太幣可獲得的權益。如果幸運的話，您可能會在低交易日獲得更多的魔法權益MMT。整個邏輯在智能合約上運行。只要以太坊區塊鏈存在，它就不會由任何干預，無法篡改，由代碼負責分紅。所以魔法權益是365天24小時運作的.",
        "community": "社區理念",
        "communitypara": "我們相信社區概念。當您變得有錢時，隨著魔法權的生態發展，參與社區中的人們也應該變得更富裕。這就是為什麼當用戶購買MMT權益時，社區中每個人都將分擔金額的原因，這也取決於他們持有多少枚權益，他們持有的權益越久。投資越早，持有的權益就越能獲得更高的分紅（利潤） ",
        "decentralisedexchange": "訪問我們的去中心化交易所",
        "decentralisedexchangepara": "每次購買賺取分紅",
        "powerofcommunity": "魔法權益就代表社群的魔力",
        "powerofcommunitypara": "在社區的支持和每個人的共同努力下，我們將一起推動銷量。讓更多人參與進來。。。",
        "divfromcbpro": "從魔法權益 MMT的分紅",
        "cbrolive": "<strong>MMT魔法交易平台上線了 </strong> !",
        "getMMT": "獲得魔法權益 MMT",
        "joincommunity": "參加我們的魔法社區",
        "joincommunitypara": "運用FACEBOOK LINE 與我們保持聯繫，留意最新發展社區消息 <br><br>",
        "pumpanddump": "社區規則",
        "pumpanddumppara": "訪問我們的去中心化交易所購買魔法權益MMT。您將根據所投資的以太幣收到魔法權益MMT。您投資了更多的以太幣，您獲得了更多的魔法權益，您也將在池中獲得了更多的分紅.",
        "thinkdifferently": "換個角度思考",
        "strategy": "一個賬號 一個投資",
        "strategypara": "這是棘手的部分。這類似於耕種方式。一旦投資並持有權益份額，你就不能在沒有獲利的情況下再次投資。這就像收割莊稼。您需要將農作物從農場中拿出來進行再次投資。但是，您可以從其他帳戶自由進行投資。投資越早，獲得的利潤就越多. ",
        "whichplayer": "您是哪種類型的參與者?",
        "whichplayerpara": "通過了解自己的參與方式，您可以為自己制定策略，同時與社區一起成長。您參與了解的越多，就能穩定賺取的分紅就越多。而且您的參與方式確實也會使所有人受益.",
        "passive": "靜態式",
        "passivepara": "如果您是靜態玩家，則可以進行投資並稍後再回來。您將看到利潤增長。您不需要做任何事情，隨著越來越多的用戶購買，利潤就會增加。一旦您獲利了，就退出社區。然後，您可以選擇再次投資。我們很相信您會繼續參與.",
        "active": "動態式",
        "activepara": "如果你是比較積極的參與者。你可以通過參與我們社群，在更短的時間內獲得更多的收益。投資多個賬戶，經常提取利潤並再次投資。聰明一點，有一個怪誕的轉移選擇。您可以將代幣從低利潤賬戶發送到高利潤賬戶以獲取更多利潤。這只有在您進行多項投資時才有幫助",
        "activepassive": "魔法購物平台用戶",
        "activepassivepara": "當您想從魔法購物平台購買物品時，您需要使用魔法權益。從我們的去中心化交易所購買魔法權益MMT，並在魔法購物平台中使用它來購買商品。魔術商城上有很多很好的產品。我們相信您會喜歡",
        "closing": "總結，關於魔法權益 MMT",
        "closingpara": "完全由智能合約控管",
        "automaticprice": "台幣價格",
        "volumebased": "總量的收益",
        "activeincome": "積極獲益的質押",
        "notconcept": "不是一個 \"空氣\" 幣",
        "general": "通用",
        "home": "主頁",
        "social": "社交媒體",
        "discord": "Discord",
        "telegram": "Telegram",
        "twitter": "Twitter",
        "reddit": "Reddit",
        "steemit": "Steemit",
        "disclaimer": "這是一個基於魔法社群的社區平台。平台是出於讓社區參與目的而製作的。根據你的投入的來投入。不要將整個房子變賣等。要為自己負責任。由於完全基於智能合約，您應對所投入的以太幣負責管理。這不是單純一項投資。它是一個基於社群生態的共贏模式。.",
        "decentralised": "魔法權益MMT市場 - 購買魔法權益 MMT",
        "masternodelink": "購買魔法權益MMT Tokens及獲得利潤成長",
        "masternodepara": "你也可以運用 魔法權益去魔法購物平台購物",
        "masternodeSecondpara": "點擊這裡去魔法購物平台",
        "oops": "哦",
        "close": "關閉",
        "ethInContract": "<strong>在智能合約中的以太</strong>",
        "cbproInCirculation": "<strong>在流通中的魔法權益 MMT</strong>",
        "buyPr": "<strong>賣入價格</strong>",
        "sellPr": "<strong>賣出價格</strong>",
        "buyCbproTokensHere": "<strong>在這裡購買魔法權益 MMT </strong>",
        "typeNumber": "輸入數目獲取馬上的價格估值.",
        "buyNow": "現在購買!",
        "payMoreGas": "支付更高的以太手續費 - 交易成交速度更快",
        "withdrReinvestMain": "<strong>提現你目前投資獲得的利潤</strong>",
        "withdrReinvestPara": "這將會將所有分紅及利潤提現.",
        "withdrawAll": "若你要用同一個賬號再參與投資，你需要提出你的利潤！",
        "withdraw": "提現",
        "profitEther": "以太 ETHER (est.)",
        "profitUsd": "美金 USD (est.)",
        "pocOwned": "<strong>共擁有的魔法權益 MMT</strong>",
        "token": "權益",
        "ether": "以太ETHER (est.)",
        "usd": "美金USD (est.)",
        "dividendsEarned": "<strong>從之前投資一家消耗的分紅</strong>",
        "etherAccurate": "以太 ETHER",
        "usdAccurate": "美金USD",
        "nonRefferalDividends": "<strong>非推介的分紅</strong>",
        "sellTokens": "<strong>在你轉讓之前，先了解一下 !</strong>",
        "sellTokensSub": "將您的所有權益轉移到任何一個其他賬號，都類似於執行提現。您可以選擇轉移全部權益或僅轉讓部分權益。如果您只轉讓您持有的權益的一部分，那麼您還可以繼續獲得您還持有的權益的利潤 !",
        "sellButton": "賣出",
        "sellQuestion": "想清楚您是否真的要轉讓而損失利潤",
        "transferTokens": "<strong>轉讓魔法權益 MMT </strong>",
        "transferTokensSub": "輸入您想要轉讓權益的MMT數量和地址.",
        "transferTokensButton": "轉讓",
        "welcomeAdmin": "歡迎管理員",
        "setStaking": "<strong>設置最低購買權益要求</strong>",
        "setStakingHeading": "輸入上面的數字以查看當前的最低購買權益要求 ",
        "setStakingPara": "設置用戶可從平台購買的最小權益數量",
        "onlyAdminStaking": "只有管​​理員可以更改最低權益要求",
        "stakingButton": "更改最低權益要求!",
        "setTokensForTWD": "<strong>設置1個以太等於多少權益</strong>",
        "setTokenforOneTWDHeading": "鍵入數字以查看1個以太幣的當前權益數量",
        "setTokenforOneTWDPara": "設置可用於1 ETH的權益數量（應設置當前1 ETH等於多少 NT $）",
        "onlyAdminSettingCoinsTWD": "只有管​​理員可以更改此設置",
        "settingCoinsFor1EthButton": "1 Eth兌換權益!",
        "exchangeRate": "目前1ETH相等於多少台幣 NT$ :",
        "withdrAdminHeading": "提現 - 從目前的獲利",
        "withdrAdminPara": "這將從管理員的分紅池中提取您所有的利潤/股息",
        "withdrawAdminSecondPara": "提款後，新用戶購買代幣後將可以再次獲利",
        "etherProfitAccurate": "ETHER",
        "usdProfitAccurate": "USD",
        "twdProfitaccurate": "NT$",
        "tokenOwned": "擁有的權益",
        "tokenBurned": "已經銷毀的權益",
        "mallOwnerTokenPara": "魔法商城運作者持有的權益",
        "mallOwnerTokenParaSecond": "總數",
        "tokensTotalOwned": "擁有權益",
        "tokenTotalOwnedPriceUSD": "美金 USD",
        "tokenTotalOwnedPriceTWD": "台幣 NT$",
        "mallOwnerTokenParaThird": "現在-可以兌換的",
        "profitTwd": "NT$",
        "twd": "NT$ (est.)",
        "twdAccurate": "NT$"
    }
}